%!PS-Adobe-3.0
%%BeginProlog
/imStr 0 def /imageSrc {currentfile /ASCII85Decode filter /RunLengthDecode filter  imStr readstring pop } def
/BD {bind def} bind def
/D {def} BD
/C {curveto} BD
/L {lineto} BD
/M {moveto} BD
/R {grestore} BD
/G {gsave} BD
/N {newpath} BD
/P {closepath} BD
/EC {eoclip} BD
/WC {clip} BD
/EF {eofill} BD
/WF {fill} BD
/SG {setgray} BD
/SC {setrgbcolor} BD
/ISOF {
     dup findfont dup length 1 add dict begin {
             1 index /FID eq {pop pop} {D} ifelse
     } forall /Encoding ISOLatin1Encoding D
     currentdict end definefont
} BD
/NZ {dup 1 lt {pop 1} if} BD
/S {
     moveto 1 index stringwidth pop NZ sub
     1 index length 1 sub NZ div 0
     3 2 roll ashow newpath} BD
/FL [
    /AvantGarde-Book ISOF
    /AvantGarde-BookOblique ISOF
    /AvantGarde-Demi ISOF
    /AvantGarde-DemiOblique ISOF
    /Bookman-Demi ISOF
    /Bookman-DemiItalic ISOF
    /Bookman-Light ISOF
    /Bookman-LightItalic ISOF
    /Courier ISOF
    /Courier-Bold ISOF
    /Courier-BoldOblique ISOF
    /Courier-Oblique ISOF
    /Helvetica ISOF
    /Helvetica-Bold ISOF
    /Helvetica-BoldOblique ISOF
    /Helvetica-Narrow ISOF
    /Helvetica-Narrow-Bold ISOF
    /Helvetica-Narrow-BoldOblique ISOF
    /Helvetica-Narrow-Oblique ISOF
    /Helvetica-Oblique ISOF
    /NewCenturySchlbk-Bold ISOF
    /NewCenturySchlbk-BoldItalic ISOF
    /NewCenturySchlbk-Italic ISOF
    /NewCenturySchlbk-Roman ISOF
    /Palatino-Bold ISOF
    /Palatino-BoldItalic ISOF
    /Palatino-Italic ISOF
    /Palatino-Roman ISOF
    /Symbol findfont
    /Times-Bold ISOF
    /Times-BoldItalic ISOF
    /Times-Italic ISOF
    /Times-Roman ISOF
    /ZapfDingbats findfont
    /ZapfChancery-MediumItalic ISOF
] D
/F {
     FL exch get exch scalefont
     [1 0 0 -1 0 0] makefont setfont} BD
%%EndProlog
%%BeginSetup
<< /PageSize [612.0 792.0] /DeferredMediaSelection true /ImagingBBox null /ManualFeed false /NumCopies 1 >> setpagedevice 
%%EndSetup
%%Page: 1 1
/pgSave save def
792.0 0 exch translate 1 -1 scale[72 300 div 0 0 72 300 div 0 0]concat
1.0 SG
G
[2.0833333 0.0 0.0 2.0833333 300.0 300.0] concat
N
0.0 0.0 M
936.0 0.0 L
936.0 1296.0 L
0.0 1296.0 L
0.0 0.0 L
P
WC
N
0.0 0.0 M
936.0 0.0 L
936.0 1296.0 L
0.0 1296.0 L
0.0 0.0 L
P
G
WC
WF
R N
R
0.0 SG
G
[2.0833333 0.0 0.0 2.0833333 914.5833 535.4167] concat
N
-9.765625E-6 9.765625E-6 M
8.0 9.765625E-6 L
8.0 15.0 L
-9.765625E-6 15.0 L
-9.765625E-6 9.765625E-6 L
P
WC
10.0 13 F
<31> 7.2 0.0 10.0 S
R
G
[2.0833333 0.0 0.0 2.0833333 816.6667 472.91666] concat
N
9.765625E-6 -4.8828124E-6 M
8.0 -4.8828124E-6 L
8.0 15.0 L
9.765625E-6 15.0 L
9.765625E-6 -4.8828124E-6 L
P
WC
10.0 13 F
<31> 7.2 0.0 10.0 S
10.0 13 F
<31> 7.2 0.0 10.0 S
R
G
[2.0833333 0.0 0.0 2.0833333 716.6667 535.4167] concat
N
9.765625E-6 9.765625E-6 M
8.0 9.765625E-6 L
8.0 15.0 L
9.765625E-6 15.0 L
9.765625E-6 9.765625E-6 L
P
WC
10.0 13 F
<31> 7.2 0.0 10.0 S
R
G
[2.0833333 0.0 0.0 2.0833333 770.8333 587.5] concat
N
-9.765625E-6 0.0 M
16.0 0.0 L
16.0 15.0 L
-9.765625E-6 15.0 L
-9.765625E-6 0.0 L
P
WC
10.0 13 F
<5430> 13.92 0.0 10.0 S
R
G
[2.0833333 0.0 0.0 2.0833333 977.0833 618.75] concat
N
-9.765625E-6 0.0 M
78.0 0.0 L
78.0 15.0 L
-9.765625E-6 15.0 L
-9.765625E-6 0.0 L
P
WC
10.0 13 F
<742e6578616d706c6532> 63.840004 0.0 10.0 S
R
G
[2.0833333 0.0 0.0 2.0833333 760.4167 400.0] concat
N
9.765625E-6 0.0 M
112.0 0.0 L
112.0 15.0 L
9.765625E-6 15.0 L
9.765625E-6 0.0 L
P
WC
10.0 13 F
<702e49734e656172456c657661746f72> 94.56001 0.0 10.0 S
R
G
[2.0833333 0.0 0.0 2.0833333 510.41666 618.75] concat
N
-4.8828124E-6 0.0 M
94.0 0.0 L
94.0 15.0 L
-4.8828124E-6 15.0 L
-4.8828124E-6 0.0 L
P
WC
10.0 13 F
<612e676f32456c657661746f72> 78.240005 0.0 10.0 S
R
G
[2.0833333 0.0 0.0 2.0833333 300.0 300.0] concat
N
244.0 120.0 M
361.0 120.0 L
361.0 151.0 L
244.0 151.0 L
244.0 120.0 L
P
WC
N
259.991 134.774 M
259.991 134.774 L
344.999 134.541 L
345.499 134.54 L
345.501 135.54 L
345.001 135.541 L
259.994 135.774 L
259.494 135.775 L
259.491 134.775 L
P
G
WC
WF
R N
R
G
[-0.0057086125 -2.0833256 2.0833256 -0.0057086125 1018.7501 581.33563] concat
N
15.318 -100.958 M
14.997 16.041 L
-16.003 15.956 L
-15.682 -101.043 L
15.318 -100.958 L
P
WC
N
0.0 0.0 M
5.0 -10.0 L
0.0 -7.0 L
-5.0 -10.0 L
P
G
EC
EF
R N
R
G
[2.0833333 0.0 0.0 2.0833333 300.0 300.0] concat
N
240.0 74.0 M
271.0 74.0 L
271.0 136.0 L
240.0 136.0 L
240.0 74.0 L
P
WC
N
255.322 120.032 M
255.322 120.032 L
254.774 90.007 L
254.765 89.507 L
255.765 89.488 L
255.774 89.988 L
256.322 120.013 L
256.331 120.513 L
255.331 120.532 L
P
G
WC
WF
R N
R
G
[-2.082986 0.038032576 -0.038032576 -2.082986 831.8205 487.49478] concat
N
14.979 16.274 M
-16.016 15.708 L
-14.884 -46.282 L
16.111 -45.716 L
14.979 16.274 L
P
WC
N
0.0 0.0 M
5.0 -10.0 L
0.0 -7.0 L
-5.0 -10.0 L
P
G
EC
EF
R N
R
G
[2.0833333 0.0 0.0 2.0833333 300.0 300.0] concat
N
240.0 74.0 M
271.0 74.0 L
271.0 136.0 L
240.0 136.0 L
240.0 74.0 L
P
WC
N
255.774 89.988 M
255.774 89.988 L
256.322 120.013 L
256.331 120.513 L
255.331 120.532 L
255.322 120.032 L
254.774 90.007 L
254.765 89.507 L
255.765 89.488 L
P
G
WC
WF
R N
R
G
[2.082986 -0.038032588 0.038032588 2.082986 832.9626 550.047] concat
N
-14.979 -46.304 M
16.016 -45.738 L
14.884 16.252 L
-16.111 15.686 L
-14.979 -46.304 L
P
WC
N
0.0 0.0 M
5.0 -10.0 L
0.0 -7.0 L
-5.0 -10.0 L
P
G
EC
EF
R N
R
G
[2.0833333 0.0 0.0 2.0833333 300.0 300.0] concat
N
149.0 120.0 M
265.0 120.0 L
265.0 151.0 L
149.0 151.0 L
149.0 120.0 L
P
WC
N
165.003 134.609 M
165.003 134.609 L
249.956 135.224 L
250.456 135.228 L
250.449 136.228 L
249.949 136.224 L
164.996 135.609 L
164.496 135.605 L
164.503 134.605 L
P
G
WC
WF
R N
R
G
[0.01509955 -2.0832787 2.0832787 0.01509955 820.7348 582.75934] concat
N
14.992 -101.064 M
15.833 14.933 L
-15.166 15.158 L
-16.007 -100.839 L
14.992 -101.064 L
P
WC
N
0.0 0.0 M
5.0 -10.0 L
0.0 -7.0 L
-5.0 -10.0 L
P
G
EC
EF
R N
R
G
[2.0833333 0.0 0.0 2.0833333 800.0 550.0] concat
N
-5.0 -5.0 M
35.0 -5.0 L
35.0 35.0 L
-5.0 35.0 L
-5.0 -5.0 L
P
WC
N
10.0 -0.5 M
10.0 -0.5 L
20.0 -0.5 L
20.5 -0.5 L
20.5 0.0 L
20.5 30.0 L
20.5 30.5 L
20.0 30.5 L
10.0 30.5 L
9.5 30.5 L
9.5 30.0 L
9.5 0.0 L
9.5 -0.5 L
10.0 -0.5 L
10.0 0.5 M
10.0 0.0 L
10.5 0.0 L
10.5 30.0 L
10.0 30.0 L
10.0 29.5 L
20.0 29.5 L
20.0 30.0 L
19.5 30.0 L
19.5 0.0 L
20.0 0.0 L
20.0 0.5 L
10.0 0.5 L
P
G
WC
WF
R N
N
10.0 -0.5 M
10.0 -0.5 L
20.0 -0.5 L
20.5 -0.5 L
20.5 0.0 L
20.5 30.0 L
20.5 30.5 L
20.0 30.5 L
10.0 30.5 L
9.5 30.5 L
9.5 30.0 L
9.5 0.0 L
9.5 -0.5 L
10.0 -0.5 L
10.0 0.5 M
10.0 0.0 L
10.5 0.0 L
10.5 30.0 L
10.0 30.0 L
10.0 29.5 L
20.0 29.5 L
20.0 30.0 L
19.5 30.0 L
19.5 0.0 L
20.0 0.0 L
20.0 0.5 L
10.0 0.5 L
P
G
WC
WF
R N
N
10.0 0.0 M
20.0 0.0 L
20.0 30.0 L
10.0 30.0 L
10.0 0.0 L
P
G
WC
WF
R N
R
1.0 SG
G
[2.0833333 0.0 0.0 2.0833333 1018.75 550.0] concat
N
-5.0 -5.0 M
35.0 -5.0 L
35.0 35.0 L
-5.0 35.0 L
-5.0 -5.0 L
P
WC
N
30.0 15.0 M
30.0 23.284 23.284 30.0 15.0 30.0 C
6.716 30.0 0.0 23.284 0.0 15.0 C
0.0 6.716 6.716 0.0 15.0 0.0 C
23.284 0.0 30.0 6.716 30.0 15.0 C
P
G
WC
WF
R N
0.0 SG
N
30.5 15.0 M
30.5 15.0 L
30.5 23.56 23.56 30.5 15.0 30.5 C
15.0 30.0 L
15.0 30.5 L
6.44 30.5 -0.5 23.56 -0.5 15.0 C
0.0 15.0 L
-0.5 15.0 L
-0.5 6.44 6.44 -0.5 15.0 -0.5 C
15.0 0.0 L
15.0 -0.5 L
23.56 -0.5 30.5 6.44 30.5 15.0 C
30.0 15.0 L
30.5 15.0 L
29.5 15.0 M
29.5 15.0 L
29.5 6.992 23.008 0.5 15.0 0.5 C
15.0 0.5 L
6.992 0.5 0.5 6.992 0.5 15.0 C
0.5 15.0 L
0.5 23.008 6.992 29.5 15.0 29.5 C
15.0 29.5 L
23.008 29.5 29.5 23.008 29.5 15.0 C
P
G
WC
WF
R N
R
G
[2.0833333 0.0 0.0 2.0833333 800.0 425.0] concat
N
-5.0 -5.0 M
35.0 -5.0 L
35.0 35.0 L
-5.0 35.0 L
-5.0 -5.0 L
P
WC
N
30.0 15.0 M
30.0 23.284 23.284 30.0 15.0 30.0 C
6.716 30.0 0.0 23.284 0.0 15.0 C
0.0 6.716 6.716 0.0 15.0 0.0 C
23.284 0.0 30.0 6.716 30.0 15.0 C
P
G
WC
WF
R N
0.0 SG
N
30.5 15.0 M
30.5 15.0 L
30.5 23.56 23.56 30.5 15.0 30.5 C
15.0 30.0 L
15.0 30.5 L
6.44 30.5 -0.5 23.56 -0.5 15.0 C
0.0 15.0 L
-0.5 15.0 L
-0.5 6.44 6.44 -0.5 15.0 -0.5 C
15.0 0.0 L
15.0 -0.5 L
23.56 -0.5 30.5 6.44 30.5 15.0 C
30.0 15.0 L
30.5 15.0 L
29.5 15.0 M
29.5 15.0 L
29.5 6.992 23.008 0.5 15.0 0.5 C
15.0 0.5 L
6.992 0.5 0.5 6.992 0.5 15.0 C
0.5 15.0 L
0.5 23.008 6.992 29.5 15.0 29.5 C
15.0 29.5 L
23.008 29.5 29.5 23.008 29.5 15.0 C
P
G
WC
WF
R N
R
G
[2.0833333 0.0 0.0 2.0833333 581.25 550.0] concat
N
-5.0 -5.0 M
35.0 -5.0 L
35.0 35.0 L
-5.0 35.0 L
-5.0 -5.0 L
P
WC
N
30.0 15.0 M
30.0 23.284 23.284 30.0 15.0 30.0 C
6.716 30.0 0.0 23.284 0.0 15.0 C
0.0 6.716 6.716 0.0 15.0 0.0 C
23.284 0.0 30.0 6.716 30.0 15.0 C
P
G
WC
WF
R N
0.0 SG
N
30.5 15.0 M
30.5 15.0 L
30.5 23.56 23.56 30.5 15.0 30.5 C
15.0 30.0 L
15.0 30.5 L
6.44 30.5 -0.5 23.56 -0.5 15.0 C
0.0 15.0 L
-0.5 15.0 L
-0.5 6.44 6.44 -0.5 15.0 -0.5 C
15.0 0.0 L
15.0 -0.5 L
23.56 -0.5 30.5 6.44 30.5 15.0 C
30.0 15.0 L
30.5 15.0 L
29.5 15.0 M
29.5 15.0 L
29.5 6.992 23.008 0.5 15.0 0.5 C
15.0 0.5 L
6.992 0.5 0.5 6.992 0.5 15.0 C
0.5 15.0 L
0.5 23.008 6.992 29.5 15.0 29.5 C
15.0 29.5 L
23.008 29.5 29.5 23.008 29.5 15.0 C
P
G
WC
WF
R N
N
16.5 15.0 M
16.5 15.0 L
16.5 16.381 15.381 17.5 14.0 17.5 C
14.0 17.0 L
14.0 17.5 L
12.619 17.5 11.5 16.381 11.5 15.0 C
12.0 15.0 L
11.5 15.0 L
11.5 13.619 12.619 12.5 14.0 12.5 C
14.0 13.0 L
14.0 12.5 L
15.381 12.5 16.5 13.619 16.5 15.0 C
16.0 15.0 L
16.5 15.0 L
15.5 15.0 M
15.5 15.0 L
15.5 14.172 14.828 13.5 14.0 13.5 C
14.0 13.5 L
13.172 13.5 12.5 14.172 12.5 15.0 C
12.5 15.0 L
12.5 15.828 13.172 16.5 14.0 16.5 C
14.0 16.5 L
14.828 16.5 15.5 15.828 15.5 15.0 C
P
G
WC
WF
R N
N
16.0 15.0 M
16.0 16.105 15.105 17.0 14.0 17.0 C
12.895 17.0 12.0 16.105 12.0 15.0 C
12.0 13.895 12.895 13.0 14.0 13.0 C
15.105 13.0 16.0 13.895 16.0 15.0 C
P
G
WC
WF
R N
pgSave restore
showpage
%%EOF
