%!PS-Adobe-3.0
%%BeginProlog
/imStr 0 def /imageSrc {currentfile /ASCII85Decode filter /RunLengthDecode filter  imStr readstring pop } def
/BD {bind def} bind def
/D {def} BD
/C {curveto} BD
/L {lineto} BD
/M {moveto} BD
/R {grestore} BD
/G {gsave} BD
/N {newpath} BD
/P {closepath} BD
/EC {eoclip} BD
/WC {clip} BD
/EF {eofill} BD
/WF {fill} BD
/SG {setgray} BD
/SC {setrgbcolor} BD
/ISOF {
     dup findfont dup length 1 add dict begin {
             1 index /FID eq {pop pop} {D} ifelse
     } forall /Encoding ISOLatin1Encoding D
     currentdict end definefont
} BD
/NZ {dup 1 lt {pop 1} if} BD
/S {
     moveto 1 index stringwidth pop NZ sub
     1 index length 1 sub NZ div 0
     3 2 roll ashow newpath} BD
/FL [
    /AvantGarde-Book ISOF
    /AvantGarde-BookOblique ISOF
    /AvantGarde-Demi ISOF
    /AvantGarde-DemiOblique ISOF
    /Bookman-Demi ISOF
    /Bookman-DemiItalic ISOF
    /Bookman-Light ISOF
    /Bookman-LightItalic ISOF
    /Courier ISOF
    /Courier-Bold ISOF
    /Courier-BoldOblique ISOF
    /Courier-Oblique ISOF
    /Helvetica ISOF
    /Helvetica-Bold ISOF
    /Helvetica-BoldOblique ISOF
    /Helvetica-Narrow ISOF
    /Helvetica-Narrow-Bold ISOF
    /Helvetica-Narrow-BoldOblique ISOF
    /Helvetica-Narrow-Oblique ISOF
    /Helvetica-Oblique ISOF
    /NewCenturySchlbk-Bold ISOF
    /NewCenturySchlbk-BoldItalic ISOF
    /NewCenturySchlbk-Italic ISOF
    /NewCenturySchlbk-Roman ISOF
    /Palatino-Bold ISOF
    /Palatino-BoldItalic ISOF
    /Palatino-Italic ISOF
    /Palatino-Roman ISOF
    /Symbol findfont
    /Times-Bold ISOF
    /Times-BoldItalic ISOF
    /Times-Italic ISOF
    /Times-Roman ISOF
    /ZapfDingbats findfont
    /ZapfChancery-MediumItalic ISOF
] D
/F {
     FL exch get exch scalefont
     [1 0 0 -1 0 0] makefont setfont} BD
%%EndProlog
%%BeginSetup
<< /PageSize [612.0 792.0] /DeferredMediaSelection true /ImagingBBox null /ManualFeed false /NumCopies 1 >> setpagedevice 
%%EndSetup
%%Page: 1 1
/pgSave save def
792.0 0 exch translate 1 -1 scale[72 300 div 0 0 72 300 div 0 0]concat
1.0 SG
G
[2.0833333 0.0 0.0 2.0833333 300.0 300.0] concat
N
0.0 0.0 M
936.0 0.0 L
936.0 1296.0 L
0.0 1296.0 L
0.0 0.0 L
P
WC
N
0.0 0.0 M
936.0 0.0 L
936.0 1296.0 L
0.0 1296.0 L
0.0 0.0 L
P
G
WC
WF
R N
R
0.0 SG
G
[2.0833333 0.0 0.0 2.0833333 835.4167 472.91666] concat
N
9.765625E-6 -4.8828124E-6 M
8.0 -4.8828124E-6 L
8.0 15.0 L
9.765625E-6 15.0 L
9.765625E-6 -4.8828124E-6 L
P
WC
10.0 13 F
<31> 7.2 0.0 10.0 S
R
G
[2.0833333 0.0 0.0 2.0833333 754.1667 410.41666] concat
N
9.765625E-6 -4.8828124E-6 M
8.0 -4.8828124E-6 L
8.0 15.0 L
9.765625E-6 15.0 L
9.765625E-6 -4.8828124E-6 L
P
WC
10.0 13 F
<31> 7.2 0.0 10.0 S
10.0 13 F
<31> 7.2 0.0 10.0 S
R
G
[2.0833333 0.0 0.0 2.0833333 654.1667 472.91666] concat
N
9.765625E-6 -4.8828124E-6 M
8.0 -4.8828124E-6 L
8.0 15.0 L
9.765625E-6 15.0 L
9.765625E-6 -4.8828124E-6 L
P
WC
10.0 13 F
<31> 7.2 0.0 10.0 S
R
G
[2.0833333 0.0 0.0 2.0833333 708.3333 525.0] concat
N
-9.765625E-6 2.842171E-14 M
16.0 2.842171E-14 L
16.0 15.0 L
-9.765625E-6 15.0 L
-9.765625E-6 2.842171E-14 L
P
WC
10.0 13 F
<5430> 13.92 0.0 10.0 S
R
G
[2.0833333 0.0 0.0 2.0833333 883.3333 556.25] concat
N
-9.765625E-6 0.0 M
78.0 0.0 L
78.0 15.0 L
-9.765625E-6 15.0 L
-9.765625E-6 0.0 L
P
WC
10.0 13 F
<742e6578616d706c6534> 63.840004 0.0 10.0 S
R
G
[2.0833333 0.0 0.0 2.0833333 697.9167 337.5] concat
N
9.765625E-6 0.0 M
112.0 0.0 L
112.0 15.0 L
9.765625E-6 15.0 L
9.765625E-6 0.0 L
P
WC
10.0 13 F
<702e4973496e536f636365724669656c64> 96.48001 0.0 10.0 S
R
G
[2.0833333 0.0 0.0 2.0833333 443.75 556.25] concat
N
2.842171E-14 0.0 M
115.0 0.0 L
115.0 15.0 L
2.842171E-14 15.0 L
2.842171E-14 0.0 L
P
WC
10.0 13 F
<612e676f32536f636365724669656c64> 96.00001 0.0 10.0 S
R
G
[2.0833333 0.0 0.0 2.0833333 300.0 300.0] concat
N
214.0 90.0 M
316.0 90.0 L
316.0 121.0 L
214.0 121.0 L
214.0 90.0 L
P
WC
N
229.991 104.774 M
229.991 104.774 L
299.998 104.548 L
300.498 104.547 L
300.502 105.547 L
300.002 105.548 L
229.994 105.774 L
229.494 105.776 L
229.491 104.776 L
P
G
WC
WF
R N
R
G
[-0.0067154868 -2.0833225 2.0833225 -0.0067154868 925.0002 518.85077] concat
N
15.325 -85.951 M
14.997 16.048 L
-16.003 15.948 L
-15.674 -86.051 L
15.325 -85.951 L
P
WC
N
0.0 0.0 M
5.0 -10.0 L
0.0 -7.0 L
-5.0 -10.0 L
P
G
EC
EF
R N
R
G
[2.0833333 0.0 0.0 2.0833333 300.0 300.0] concat
N
210.0 44.0 M
241.0 44.0 L
241.0 106.0 L
210.0 106.0 L
210.0 44.0 L
P
WC
N
225.322 90.032 M
225.322 90.032 L
224.774 60.007 L
224.765 59.507 L
225.765 59.488 L
225.774 59.988 L
226.322 90.013 L
226.331 90.513 L
225.331 90.532 L
P
G
WC
WF
R N
R
G
[-2.082986 0.038032584 -0.038032584 -2.082986 769.3205 424.99478] concat
N
14.979 16.274 M
-16.016 15.708 L
-14.884 -46.282 L
16.111 -45.716 L
14.979 16.274 L
P
WC
N
0.0 0.0 M
5.0 -10.0 L
0.0 -7.0 L
-5.0 -10.0 L
P
G
EC
EF
R N
R
G
[2.0833333 0.0 0.0 2.0833333 300.0 300.0] concat
N
210.0 44.0 M
241.0 44.0 L
241.0 106.0 L
210.0 106.0 L
210.0 44.0 L
P
WC
N
225.774 59.988 M
225.774 59.988 L
226.322 90.013 L
226.331 90.513 L
225.331 90.532 L
225.322 90.032 L
224.774 60.007 L
224.765 59.507 L
225.765 59.488 L
P
G
WC
WF
R N
R
G
[2.082986 -0.038032588 0.038032588 2.082986 770.4626 487.54697] concat
N
-14.979 -46.304 M
16.016 -45.738 L
14.884 16.252 L
-16.111 15.686 L
-14.979 -46.304 L
P
WC
N
0.0 0.0 M
5.0 -10.0 L
0.0 -7.0 L
-5.0 -10.0 L
P
G
EC
EF
R N
R
G
[2.0833333 0.0 0.0 2.0833333 300.0 300.0] concat
N
119.0 90.0 M
235.0 90.0 L
235.0 121.0 L
119.0 121.0 L
119.0 90.0 L
P
WC
N
135.003 104.609 M
135.003 104.609 L
219.956 105.224 L
220.456 105.228 L
220.449 106.228 L
219.949 106.224 L
134.996 105.609 L
134.496 105.605 L
134.503 104.605 L
P
G
WC
WF
R N
R
G
[0.01510011 -2.0832787 2.0832787 0.01510011 758.2348 520.25934] concat
N
14.992 -101.064 M
15.833 14.933 L
-15.166 15.158 L
-16.007 -100.839 L
14.992 -101.064 L
P
WC
N
0.0 0.0 M
5.0 -10.0 L
0.0 -7.0 L
-5.0 -10.0 L
P
G
EC
EF
R N
R
G
[2.0833333 0.0 0.0 2.0833333 737.5 487.5] concat
N
-5.0 -5.0 M
35.0 -5.0 L
35.0 35.0 L
-5.0 35.0 L
-5.0 -5.0 L
P
WC
N
10.0 -0.5 M
10.0 -0.5 L
20.0 -0.5 L
20.5 -0.5 L
20.5 0.0 L
20.5 30.0 L
20.5 30.5 L
20.0 30.5 L
10.0 30.5 L
9.5 30.5 L
9.5 30.0 L
9.5 0.0 L
9.5 -0.5 L
10.0 -0.5 L
10.0 0.5 M
10.0 0.0 L
10.5 0.0 L
10.5 30.0 L
10.0 30.0 L
10.0 29.5 L
20.0 29.5 L
20.0 30.0 L
19.5 30.0 L
19.5 0.0 L
20.0 0.0 L
20.0 0.5 L
10.0 0.5 L
P
G
WC
WF
R N
N
10.0 -0.5 M
10.0 -0.5 L
20.0 -0.5 L
20.5 -0.5 L
20.5 0.0 L
20.5 30.0 L
20.5 30.5 L
20.0 30.5 L
10.0 30.5 L
9.5 30.5 L
9.5 30.0 L
9.5 0.0 L
9.5 -0.5 L
10.0 -0.5 L
10.0 0.5 M
10.0 0.0 L
10.5 0.0 L
10.5 30.0 L
10.0 30.0 L
10.0 29.5 L
20.0 29.5 L
20.0 30.0 L
19.5 30.0 L
19.5 0.0 L
20.0 0.0 L
20.0 0.5 L
10.0 0.5 L
P
G
WC
WF
R N
N
10.0 0.0 M
20.0 0.0 L
20.0 30.0 L
10.0 30.0 L
10.0 0.0 L
P
G
WC
WF
R N
R
1.0 SG
G
[2.0833333 0.0 0.0 2.0833333 925.0 487.5] concat
N
-5.0 -5.0 M
35.0 -5.0 L
35.0 35.0 L
-5.0 35.0 L
-5.0 -5.0 L
P
WC
N
30.0 15.0 M
30.0 23.284 23.284 30.0 15.0 30.0 C
6.716 30.0 0.0 23.284 0.0 15.0 C
0.0 6.716 6.716 0.0 15.0 0.0 C
23.284 0.0 30.0 6.716 30.0 15.0 C
P
G
WC
WF
R N
0.0 SG
N
30.5 15.0 M
30.5 15.0 L
30.5 23.56 23.56 30.5 15.0 30.5 C
15.0 30.0 L
15.0 30.5 L
6.44 30.5 -0.5 23.56 -0.5 15.0 C
0.0 15.0 L
-0.5 15.0 L
-0.5 6.44 6.44 -0.5 15.0 -0.5 C
15.0 0.0 L
15.0 -0.5 L
23.56 -0.5 30.5 6.44 30.5 15.0 C
30.0 15.0 L
30.5 15.0 L
29.5 15.0 M
29.5 15.0 L
29.5 6.992 23.008 0.5 15.0 0.5 C
15.0 0.5 L
6.992 0.5 0.5 6.992 0.5 15.0 C
0.5 15.0 L
0.5 23.008 6.992 29.5 15.0 29.5 C
15.0 29.5 L
23.008 29.5 29.5 23.008 29.5 15.0 C
P
G
WC
WF
R N
R
G
[2.0833333 0.0 0.0 2.0833333 737.5 362.5] concat
N
-5.0 -5.0 M
35.0 -5.0 L
35.0 35.0 L
-5.0 35.0 L
-5.0 -5.0 L
P
WC
N
30.0 15.0 M
30.0 23.284 23.284 30.0 15.0 30.0 C
6.716 30.0 0.0 23.284 0.0 15.0 C
0.0 6.716 6.716 0.0 15.0 0.0 C
23.284 0.0 30.0 6.716 30.0 15.0 C
P
G
WC
WF
R N
0.0 SG
N
30.5 15.0 M
30.5 15.0 L
30.5 23.56 23.56 30.5 15.0 30.5 C
15.0 30.0 L
15.0 30.5 L
6.44 30.5 -0.5 23.56 -0.5 15.0 C
0.0 15.0 L
-0.5 15.0 L
-0.5 6.44 6.44 -0.5 15.0 -0.5 C
15.0 0.0 L
15.0 -0.5 L
23.56 -0.5 30.5 6.44 30.5 15.0 C
30.0 15.0 L
30.5 15.0 L
29.5 15.0 M
29.5 15.0 L
29.5 6.992 23.008 0.5 15.0 0.5 C
15.0 0.5 L
6.992 0.5 0.5 6.992 0.5 15.0 C
0.5 15.0 L
0.5 23.008 6.992 29.5 15.0 29.5 C
15.0 29.5 L
23.008 29.5 29.5 23.008 29.5 15.0 C
P
G
WC
WF
R N
R
G
[2.0833333 0.0 0.0 2.0833333 518.75 487.5] concat
N
-5.0 -5.0 M
35.0 -5.0 L
35.0 35.0 L
-5.0 35.0 L
-5.0 -5.0 L
P
WC
N
30.0 15.0 M
30.0 23.284 23.284 30.0 15.0 30.0 C
6.716 30.0 0.0 23.284 0.0 15.0 C
0.0 6.716 6.716 0.0 15.0 0.0 C
23.284 0.0 30.0 6.716 30.0 15.0 C
P
G
WC
WF
R N
0.0 SG
N
30.5 15.0 M
30.5 15.0 L
30.5 23.56 23.56 30.5 15.0 30.5 C
15.0 30.0 L
15.0 30.5 L
6.44 30.5 -0.5 23.56 -0.5 15.0 C
0.0 15.0 L
-0.5 15.0 L
-0.5 6.44 6.44 -0.5 15.0 -0.5 C
15.0 0.0 L
15.0 -0.5 L
23.56 -0.5 30.5 6.44 30.5 15.0 C
30.0 15.0 L
30.5 15.0 L
29.5 15.0 M
29.5 15.0 L
29.5 6.992 23.008 0.5 15.0 0.5 C
15.0 0.5 L
6.992 0.5 0.5 6.992 0.5 15.0 C
0.5 15.0 L
0.5 23.008 6.992 29.5 15.0 29.5 C
15.0 29.5 L
23.008 29.5 29.5 23.008 29.5 15.0 C
P
G
WC
WF
R N
N
16.5 15.0 M
16.5 15.0 L
16.5 16.381 15.381 17.5 14.0 17.5 C
14.0 17.0 L
14.0 17.5 L
12.619 17.5 11.5 16.381 11.5 15.0 C
12.0 15.0 L
11.5 15.0 L
11.5 13.619 12.619 12.5 14.0 12.5 C
14.0 13.0 L
14.0 12.5 L
15.381 12.5 16.5 13.619 16.5 15.0 C
16.0 15.0 L
16.5 15.0 L
15.5 15.0 M
15.5 15.0 L
15.5 14.172 14.828 13.5 14.0 13.5 C
14.0 13.5 L
13.172 13.5 12.5 14.172 12.5 15.0 C
12.5 15.0 L
12.5 15.828 13.172 16.5 14.0 16.5 C
14.0 16.5 L
14.828 16.5 15.5 15.828 15.5 15.0 C
P
G
WC
WF
R N
N
16.0 15.0 M
16.0 16.105 15.105 17.0 14.0 17.0 C
12.895 17.0 12.0 16.105 12.0 15.0 C
12.0 13.895 12.895 13.0 14.0 13.0 C
15.105 13.0 16.0 13.895 16.0 15.0 C
P
G
WC
WF
R N
pgSave restore
showpage
%%EOF
